…
Clean up table

``` r
table_marj %>% 
  select(-contains("P Value")) %>% 
  pivot_longer(-State, 
               names_to = "age_year", 
               values_to = "percent") %>% 
  separate(age_year, into = c("age", "year"), -11)
```

    ## # A tibble: 560 × 4
    ##    State      age   year        percent
    ##    <chr>      <chr> <chr>       <chr>  
    ##  1 Total U.S. 12+   (2013-2014) 12.90a 
    ##  2 Total U.S. 12+   (2014-2015) 13.36  
    ##  3 Total U.S. 12-17 (2013-2014) 13.28b 
    ##  4 Total U.S. 12-17 (2014-2015) 12.86  
    ##  5 Total U.S. 18-25 (2013-2014) 31.78  
    ##  6 Total U.S. 18-25 (2014-2015) 32.07  
    ##  7 Total U.S. 26+   (2013-2014) 9.63a  
    ##  8 Total U.S. 26+   (2014-2015) 10.25  
    ##  9 Total U.S. 18+   (2013-2014) 12.87a 
    ## 10 Total U.S. 18+   (2014-2015) 13.41  
    ## # … with 550 more rows
…
``` r
rest_inspec %>% 
  group_by(boro, grade) %>% 
  summarise(count = n())
```

    ## `summarise()` has grouped output by 'boro'. You can override using the `.groups` argument.

    ## # A tibble: 37 × 3
    ## # Groups:   boro [6]
    ##    boro     grade          count
    ##    <chr>    <chr>          <int>
    ##  1 BRONX    A              13688
    ##  2 BRONX    B               2801
    ##  3 BRONX    C                701
    ##  4 BRONX    Not Yet Graded   200
    ##  5 BRONX    P                163
    ##  6 BRONX    Z                351
    ##  7 BRONX    <NA>           16833
    ##  8 BROOKLYN A              37449
    ##  9 BROOKLYN B               6651
    ## 10 BROOKLYN C               1684
    ## # … with 27 more rows

``` r
rest_inspec %>% 
  filter(str_detect(grade, "[ABC]"), 
  !(boro == "Missing")) %>% 
  mutate(boro = str_to_title(boro))
```

    ## # A tibble: 188,195 × 18
    ##    action        boro   building  camis critical_flag cuisine_descrip… dba      
    ##    <chr>         <chr>  <chr>     <int> <chr>         <chr>            <chr>    
    ##  1 Violations w… Manha… 1271     5.00e7 Critical      American         THE HARO…
    ##  2 Violations w… Manha… 37       4.12e7 Not Critical  Korean           SHILLA K…
    ##  3 Violations w… Manha… 53       4.04e7 Not Critical  Korean           HAN BAT …
    ##  4 Violations w… Manha… 287      4.16e7 Not Critical  American         BRGR     
    ##  5 Violations w… Manha… 800      4.11e7 Not Critical  Pizza            WALDY'S …
    ##  6 Violations w… Manha… 121      5.00e7 Not Critical  CafÃ©/Coffee/Tea LUNA     
    ##  7 Violations w… Manha… 124      4.10e7 Critical      American         JOHNY'S …
    ##  8 Violations w… Manha… 138      4.11e7 Critical      American         AROME CA…
    ##  9 Violations w… Manha… 839      5.00e7 Not Critical  American         L'AMICO/…
    ## 10 Violations w… Manha… 35       4.13e7 Critical      Korean           MADANGSUI
    ## # … with 188,185 more rows, and 11 more variables: inspection_date <dttm>,
    ## #   inspection_type <chr>, phone <chr>, record_date <dttm>, score <int>,
    ## #   street <chr>, violation_code <chr>, violation_description <chr>,
    ## #   zipcode <int>, grade <chr>, grade_date <dttm>
…
